Analyzing Commuter Patterns in Allegheny County – Conor Tompkins
…
The crosswalk file contains keys to join a variety of geographies.

geo_crosswalk

# A tibble: 421,545 × 43
   tabblk2010    st    stusps stname cty   ctyname trct  trctname bgrp  bgrpname
   <chr>         <chr> <chr>  <chr>  <chr> <chr>   <chr> <chr>    <chr> <chr>   
 1 420912030002… 42    PA     Penns… 42091 Montgo… 4209… 2030 (M… 4209… 2 (Trac…
 2 420912070013… 42    PA     Penns… 42091 Montgo… 4209… 2070.01… 4209… 3 (Trac…
 3 420912070013… 42    PA     Penns… 42091 Montgo… 4209… 2070.01… 4209… 3 (Trac…
 4 420710144022… 42    PA     Penns… 42071 Lancas… 4207… 144.02 … 4207… 2 (Trac…
 5 420710144022… 42    PA     Penns… 42071 Lancas… 4207… 144.02 … 4207… 2 (Trac…
 6 420710134002… 42    PA     Penns… 42071 Lancas… 4207… 134 (La… 4207… 2 (Trac…
 7 420710144022… 42    PA     Penns… 42071 Lancas… 4207… 144.02 … 4207… 2 (Trac…
 8 420710144022… 42    PA     Penns… 42071 Lancas… 4207… 144.02 … 4207… 2 (Trac…
 9 420710144022… 42    PA     Penns… 42071 Lancas… 4207… 144.02 … 4207… 2 (Trac…
10 420710144022… 42    PA     Penns… 42071 Lancas… 4207… 144.02 … 4207… 2 (Trac…
# ℹ 421,535 more rows
# ℹ 33 more variables: cbsa <chr>, cbsaname <chr>, zcta <chr>, zctaname <chr>,
#   stplc <chr>, stplcname <chr>, ctycsub <chr>, ctycsubname <chr>,
#   stcd116 <chr>, stcd116name <chr>, stsldl <chr>, stsldlname <chr>,
#   stsldu <chr>, stslduname <chr>, stschool <chr>, stschoolname <chr>,
#   stsecon <chr>, stseconname <chr>, trib <chr>, tribname <chr>, tsub <chr>,
#   tsubname <chr>, stanrc <chr>, stanrcname <chr>, necta <chr>, …

Next I read in the main LODES data. This is a big file, so it takes a moment.

df <- read_csv("post_data/pa_od_main_JT00_2015.csv.gz", col_types = cols(.default = "c")) %>% 
  mutate(S000 = as.numeric(S000)) %>% 
  select(h_geocode, w_geocode, S000)

df

# A tibble: 4,961,712 × 3
   h_geocode       w_geocode        S000
   <chr>           <chr>           <dbl>
 1 420010303001089 420010301011013     1
 2 420410126001030 420010301011013     1
 3 421330217111050 420010301011013     1
 4 420010301011029 420010301011016     1
 5 420010301011063 420010301011016     1
 6 420010301011090 420010301011016     1
 7 420010302001079 420010301011016     1
 8 420010302001089 420010301011016     1
 9 420010304003043 420010301011016     1
10 420010307002014 420010301011016     1
# ℹ 4,961,702 more rows
…
This code sets the nodes for the graph at the center of each census tract and creates a manual layout that the network plot will use.

node_pos <- allegheny_tracts_centroids

manual_layout <- create_layout(graph = g_main,
                               layout = node_pos)

# A tibble: 402 × 7
   GEOID           x     y name        .ggraph.orig_index .ggraph.index circular
   <chr>       <dbl> <dbl> <chr>                    <int>         <int> <lgl>   
 1 42003010300 -80.0  40.4 42003010300                  1             1 FALSE   
 2 42003020100 -80.0  40.4 42003020100                  2             2 FALSE   
 3 42003020300 -80.0  40.5 42003020300                  3             3 FALSE   
 4 42003030500 -80.0  40.4 42003030500                  4             4 FALSE   
 5 42003040200 -80.0  40.4 42003040200                  5             5 FALSE   
 6 42003040400 -79.9  40.4 42003040400                  6             6 FALSE   
 7 42003040500 -80.0  40.4 42003040500                  7             7 FALSE   
 8 42003040600 -80.0  40.4 42003040600                  8             8 FALSE   
 9 42003040900 -80.0  40.4 42003040900                  9             9 FALSE   
10 42003050100 -80.0  40.4 42003050100                 10            10 FALSE   
# ℹ 392 more rows
…
manual_layout_faceted <- create_layout(graph = g_facet,
                                       layout = node_pos)
manual_layout_faceted %>% 
  as_tibble()

# A tibble: 402 × 7
   GEOID           x     y name        .ggraph.orig_index .ggraph.index circular
   <chr>       <dbl> <dbl> <chr>                    <int>         <int> <lgl>   
 1 42003010300 -80.0  40.4 42003010300                  1             1 FALSE   
 2 42003020100 -80.0  40.4 42003020100                  2             2 FALSE   
 3 42003020300 -80.0  40.5 42003020300                  3             3 FALSE   
 4 42003030500 -80.0  40.4 42003030500                  4             4 FALSE   
 5 42003040200 -80.0  40.4 42003040200                  5             5 FALSE   
 6 42003040400 -79.9  40.4 42003040400                  6             6 FALSE   
 7 42003040500 -80.0  40.4 42003040500                  7             7 FALSE   
 8 42003040600 -80.0  40.4 42003040600                  8             8 FALSE   
 9 42003040900 -80.0  40.4 42003040900                  9             9 FALSE   
10 42003050100 -80.0  40.4 42003050100                 10            10 FALSE   
# ℹ 392 more rows
…
filter_tract <- "42003473500"

allegheny_tracts_highlight <- allegheny_tracts %>% 
  semi_join(df_tracts_summarized %>% 
              filter(h_tract == filter_tract), by = c("GEOID" = "w_tract")) %>% 
  filter(commuters_in > minimum_commuters)

allegheny_tracts_highlight

Simple feature collection with 208 features and 5 fields
Geometry type: MULTIPOLYGON
Dimension:     XY
Bounding box:  xmin: -80.36087 ymin: 40.20845 xmax: -79.70383 ymax: 40.67494
Geodetic CRS:  NAD83
# A tibble: 208 × 6
   GEOID    NAME  total_pop                  geometry commuters_out commuters_in
 * <chr>    <chr>     <dbl>        <MULTIPOLYGON [°]>         <dbl>        <dbl>
 1 4200301… Cens…      6600 (((-79.98077 40.43836, -…           390         5470
 2 4200302… Cens…      3629 (((-79.9908 40.44442, -7…          1029        58444
 3 4200302… Cens…       616 (((-79.98062 40.45904, -…           415         7155
 4 4200304… Cens…      2604 (((-79.96802 40.4429, -7…           428        12340
 5 4200304… Cens…      2488 (((-79.94652 40.44508, -…           357          955
 6 4200304… Cens…      3694 (((-79.95497 40.4371, -7…           290         1817
 7 4200304… Cens…      2969 (((-79.94986 40.43443, -…           805         7822
 8 4200305… Cens…      2057 (((-79.96206 40.44863, -…           800          235
 9 4200307… Cens…      2197 (((-79.93137 40.45274, -…           769         1343
10 4200307… Cens…      2997 (((-79.92533 40.45499, -…          1367         1277
# ℹ 198 more rows
…
Set the layout for the graph:

manual_layout_filtered <- create_layout(graph = g_filtered,
                                        layout = node_pos)

# A tibble: 402 × 7
   GEOID           x     y name        .ggraph.orig_index .ggraph.index circular
   <chr>       <dbl> <dbl> <chr>                    <int>         <int> <lgl>   
 1 42003010300 -80.0  40.4 42003010300                  1             1 FALSE   
 2 42003020100 -80.0  40.4 42003020100                  2             2 FALSE   
 3 42003020300 -80.0  40.5 42003020300                  3             3 FALSE   
 4 42003030500 -80.0  40.4 42003030500                  4             4 FALSE   
 5 42003040200 -80.0  40.4 42003040200                  5             5 FALSE   
 6 42003040400 -79.9  40.4 42003040400                  6             6 FALSE   
 7 42003040500 -80.0  40.4 42003040500                  7             7 FALSE   
 8 42003040600 -80.0  40.4 42003040600                  8             8 FALSE   
 9 42003040900 -80.0  40.4 42003040900                  9             9 FALSE   
10 42003050100 -80.0  40.4 42003050100                 10            10 FALSE   
# ℹ 392 more rows
…
