C&S Presentation: Time Series Forecasting – ctompkins_quarto_blog
…
Measured variable: report_count

#create basic tsibble
pothole_df <- report_data |> 
  filter(request_type == "Potholes") |> 
  summarize(report_count = n(),
            .by = c(create_date, request_type)) |> 
  ungroup() |>
  filter(year(create_date) >= 2016) |> 
  as_tsibble(key = request_type, index = create_date)

pothole_df

# A tsibble: 106 x 3 [1M]
# Key:       request_type [1]
   create_date request_type report_count
         <mth> <chr>               <int>
 1    2016 Jan Potholes              208
 2    2016 Feb Potholes              574
 3    2016 Mar Potholes              936
 4    2016 Apr Potholes              732
 5    2016 May Potholes              789
 6    2016 Jun Potholes              723
 7    2016 Jul Potholes              554
 8    2016 Aug Potholes              516
 9    2016 Sep Potholes              357
10    2016 Oct Potholes              313
# ℹ 96 more rows
…
Forecast on test data

Make forecast from fit models onto test data

pothole_fc <- forecast(model_df, data_test)

pothole_fc

# A fable: 168 x 5 [1M]
# Key:     request_type, .model [8]
   request_type .model create_date    report_count .mean
   <chr>        <chr>        <mth>          <dist> <dbl>
 1 Potholes     naive     2023 Feb t(N(6.1, 0.39))  521.
 2 Potholes     naive     2023 Mar t(N(6.1, 0.77))  606.
 3 Potholes     naive     2023 Apr  t(N(6.1, 1.2))  690.
 4 Potholes     naive     2023 May  t(N(6.1, 1.5))  774.
 5 Potholes     naive     2023 Jun  t(N(6.1, 1.9))  859.
 6 Potholes     naive     2023 Jul  t(N(6.1, 2.3))  943.
 7 Potholes     naive     2023 Aug  t(N(6.1, 2.7)) 1027.
 8 Potholes     naive     2023 Sep  t(N(6.1, 3.1)) 1112.
 9 Potholes     naive     2023 Oct  t(N(6.1, 3.5)) 1196.
10 Potholes     naive     2023 Nov  t(N(6.1, 3.9)) 1280.
# ℹ 158 more rows
…
Cross-validation

Create multiple train/test sets with rolling origins

pothole_cv <- stretch_tsibble(pothole_df, .step = 6, .init = 24)

pothole_cv

# A tsibble: 882 x 4 [1M]
# Key:       .id, request_type [14]
   create_date request_type report_count   .id
         <mth> <chr>               <int> <int>
 1    2016 Jan Potholes              208     1
 2    2016 Feb Potholes              574     1
 3    2016 Mar Potholes              936     1
 4    2016 Apr Potholes              732     1
 5    2016 May Potholes              789     1
 6    2016 Jun Potholes              723     1
 7    2016 Jul Potholes              554     1
 8    2016 Aug Potholes              516     1
 9    2016 Sep Potholes              357     1
10    2016 Oct Potholes              313     1
# ℹ 872 more rows
…
