Exploring 311 Data With PCA – Conor Tompkins
…
read_csv("https://raw.githubusercontent.com/conorotompkins/pittsburgh_311/master/data/pittsburgh_311.csv", progress = FALSE) %>% 
  clean_names() %>% 
  mutate(date = ymd(str_sub(created_on, 1, 10)),
         month = month(date, label = TRUE)) %>% 
  filter(date < "2018-07-19") -> df

Prep the data

Create a dataframe of the top request types

(df %>% 
  count(request_type, sort = TRUE) %>% 
  filter(n > 400)-> df_top_requests)

# A tibble: 84 × 2
   request_type                             n
   <chr>                                <int>
 1 Potholes                             25202
 2 Weeds/Debris                         16503
 3 Building Maintenance                 10469
 4 Snow/Ice removal                      7006
 5 Refuse Violations                     6515
 6 Abandoned Vehicle (parked on street)  5877
 7 Missed Pick Up                        4689
 8 Replace/Repair a Sign                 4445
 9 Building Without a Permit             4404
10 Litter                                4198
# ℹ 74 more rows

Count the number of requests per month by request type, filter for the top request types, and fill in gaps in the data

(df %>%
  semi_join(df_top_requests) %>% 
  group_by(request_type, month) %>% 
  summarize(n = n()) %>% 
  ungroup() %>%
  complete(request_type, month) %>% 
  replace_na(replace = list(n = 0)) -> df_months)

# A tibble: 1,008 × 3
   request_type                         month     n
   <chr>                                <ord> <int>
 1 Abandoned Vehicle (parked on street) Jan     523
 2 Abandoned Vehicle (parked on street) Feb     427
 3 Abandoned Vehicle (parked on street) Mar     452
 4 Abandoned Vehicle (parked on street) Apr     417
 5 Abandoned Vehicle (parked on street) May     488
 6 Abandoned Vehicle (parked on street) Jun     466
 7 Abandoned Vehicle (parked on street) Jul     457
 8 Abandoned Vehicle (parked on street) Aug     596
 9 Abandoned Vehicle (parked on street) Sep     525
10 Abandoned Vehicle (parked on street) Oct     571
# ℹ 998 more rows

Calculate the percentage of a request type for each month

(df_months %>% 
  group_by(request_type) %>% 
  mutate(request_type_total = sum(n),
         month_percentage = n / request_type_total) -> df_months)

# A tibble: 1,008 × 5
# Groups:   request_type [84]
   request_type                  month     n request_type_total month_percentage
   <chr>                         <ord> <int>              <int>            <dbl>
 1 Abandoned Vehicle (parked on… Jan     523               5877           0.0890
 2 Abandoned Vehicle (parked on… Feb     427               5877           0.0727
 3 Abandoned Vehicle (parked on… Mar     452               5877           0.0769
 4 Abandoned Vehicle (parked on… Apr     417               5877           0.0710
 5 Abandoned Vehicle (parked on… May     488               5877           0.0830
 6 Abandoned Vehicle (parked on… Jun     466               5877           0.0793
 7 Abandoned Vehicle (parked on… Jul     457               5877           0.0778
 8 Abandoned Vehicle (parked on… Aug     596               5877           0.101 
 9 Abandoned Vehicle (parked on… Sep     525               5877           0.0893
10 Abandoned Vehicle (parked on… Oct     571               5877           0.0972
# ℹ 998 more rows
…
# A tibble: 0 × 5
# Groups:   request_type [0]
# ℹ 5 variables: request_type <chr>, month <ord>, n <int>,
#   request_type_total <int>, month_percentage <dbl>

Spread the data to turn the months into the columns

(df_months %>% 
  select(request_type, month, month_percentage) %>% 
  spread(month, month_percentage) %>% 
  ungroup() -> df_months)

# A tibble: 84 × 13
   request_type     Jan     Feb    Mar    Apr    May    Jun    Jul    Aug    Sep
   <chr>          <dbl>   <dbl>  <dbl>  <dbl>  <dbl>  <dbl>  <dbl>  <dbl>  <dbl>
 1 Abandoned V… 0.0890  0.0727  0.0769 0.0710 0.0830 0.0793 0.0778 0.101  0.0893
 2 Barking Dog  0.0563  0.0608  0.0608 0.0631 0.104  0.101  0.0788 0.113  0.124 
 3 Board Up (P… 0.0395  0.0482  0.0658 0.0943 0.114  0.0899 0.110  0.123  0.0855
 4 Broken Side… 0.0337  0.155   0.148  0.0872 0.105  0.0964 0.0696 0.0735 0.0528
 5 Building Ma… 0.0708  0.0919  0.103  0.0739 0.0842 0.0829 0.0725 0.0919 0.0776
 6 Building Wi… 0.0842  0.0697  0.0636 0.0577 0.105  0.0883 0.0924 0.0815 0.0829
 7 Catch Basin… 0.0636  0.0377  0.0778 0.0748 0.0984 0.132  0.0825 0.127  0.105 
 8 City Source… 0.00527 0.00246 0.0105 0.0428 0.196  0.213  0.195  0.164  0.0808
 9 City Steps,… 0.0443  0.0180  0.0148 0.0197 0.116  0.216  0.203  0.146  0.118 
10 City Steps,… 0.0265  0.0305  0.0713 0.0509 0.128  0.120  0.136  0.128  0.108 
# ℹ 74 more rows
# ℹ 3 more variables: Oct <dbl>, Nov <dbl>, Dec <dbl>

Check that they all add up to 1 across the rows

(df_months %>% 
  select(Jan:Dec) %>% 
  mutate(row_sum = rowSums(.)) %>% 
  select(row_sum, everything()) -> test)

# A tibble: 84 × 13
   row_sum     Jan     Feb    Mar    Apr    May    Jun    Jul    Aug    Sep
     <dbl>   <dbl>   <dbl>  <dbl>  <dbl>  <dbl>  <dbl>  <dbl>  <dbl>  <dbl>
 1       1 0.0890  0.0727  0.0769 0.0710 0.0830 0.0793 0.0778 0.101  0.0893
 2       1 0.0563  0.0608  0.0608 0.0631 0.104  0.101  0.0788 0.113  0.124 
 3       1 0.0395  0.0482  0.0658 0.0943 0.114  0.0899 0.110  0.123  0.0855
 4       1 0.0337  0.155   0.148  0.0872 0.105  0.0964 0.0696 0.0735 0.0528
 5       1 0.0708  0.0919  0.103  0.0739 0.0842 0.0829 0.0725 0.0919 0.0776
 6       1 0.0842  0.0697  0.0636 0.0577 0.105  0.0883 0.0924 0.0815 0.0829
 7       1 0.0636  0.0377  0.0778 0.0748 0.0984 0.132  0.0825 0.127  0.105 
 8       1 0.00527 0.00246 0.0105 0.0428 0.196  0.213  0.195  0.164  0.0808
 9       1 0.0443  0.0180  0.0148 0.0197 0.116  0.216  0.203  0.146  0.118 
10       1 0.0265  0.0305  0.0713 0.0509 0.128  0.120  0.136  0.128  0.108 
# ℹ 74 more rows
# ℹ 3 more variables: Oct <dbl>, Nov <dbl>, Dec <dbl>
…
