Modeling the Pittsburgh City Boundary – Conor Tompkins
…
I stratify by type so that each bootstrap has ~34% city tracts. This generates 50 sets of data for the model to work with.

tract_boot <- bootstraps(census_combined, strata = type, times = 50)

tract_boot

# Bootstrap sampling using stratification 
# A tibble: 50 × 2
   splits            id         
   <list>            <chr>      
 1 <split [402/152]> Bootstrap01
 2 <split [402/145]> Bootstrap02
 3 <split [402/147]> Bootstrap03
 4 <split [402/150]> Bootstrap04
 5 <split [402/144]> Bootstrap05
 6 <split [402/148]> Bootstrap06
 7 <split [402/152]> Bootstrap07
 8 <split [402/149]> Bootstrap08
 9 <split [402/143]> Bootstrap09
10 <split [402/156]> Bootstrap10
# ℹ 40 more rows
…
