R 311 Pothole Workshop Code for Pittsburgh – Conor Tompkins
…
#initial data munging to get the dates in shape
df %>%
  mutate(date = ymd(str_sub(created_on, 1, 10)),
         time = hms(str_sub(created_on, 11, 18)),
         month = month(date, label = TRUE), 
         year = year(date),
         yday = yday(date)) %>% 
  select(-c(created_on, time)) -> df

Explore the data

df #type the name of the object to preview it

# A tibble: 225,189 × 21
    `_id` request_id request_type  request_origin status department neighborhood
    <dbl>      <dbl> <chr>         <chr>           <dbl> <chr>      <chr>       
 1 154245      54111 Rodent contr… Call Center         1 Animal Ca… Middle Hill 
 2 154246      53833 Rodent contr… Call Center         1 Animal Ca… Squirrel Hi…
 3 154247      52574 Potholes      Call Center         1 DPW - Str… Larimer     
 4 154248      54293 Building Wit… Control Panel       1 Permits, … <NA>        
 5 154249      53560 Potholes      Call Center         1 DPW - Str… Homewood No…
 6 154250      49519 Potholes      Call Center         1 DPW - Str… Homewood No…
 7 154251      49484 Potholes      Call Center         1 DPW - Str… Homewood No…
 8 154252      53787 Rodent contr… Call Center         1 Animal Ca… South Side …
 9 154253      52887 Potholes      Call Center         1 DPW - Str… East Hills  
10 154254      53599 Rodent contr… Call Center         1 Animal Ca… East Allegh…
# ℹ 225,179 more rows
# ℹ 14 more variables: council_district <dbl>, ward <dbl>, tract <dbl>,
#   public_works_division <dbl>, pli_division <dbl>, police_zone <dbl>,
#   fire_zone <chr>, x <dbl>, y <dbl>, geo_accuracy <chr>, date <date>,
#   month <ord>, year <dbl>, yday <dbl>
…
The pipe

%>% means “and then”

%>% passes the dataframe to the next function

select

select() selects the columns you want to work with. You can also exclude columns using “-”

df %>% #select the dataframe
  select(date, request_type) #select the date and request_type columns

# A tibble: 225,189 × 2
   date       request_type             
   <date>     <chr>                    
 1 2016-03-10 Rodent control           
 2 2016-03-09 Rodent control           
 3 2016-03-03 Potholes                 
 4 2016-03-11 Building Without a Permit
 5 2016-03-08 Potholes                 
 6 2016-02-22 Potholes                 
 7 2016-02-22 Potholes                 
 8 2016-03-09 Rodent control           
 9 2016-03-04 Potholes                 
10 2016-03-08 Rodent control           
# ℹ 225,179 more rows

filter

filter() uses logic to include or exclude rows based on the criteria you set

You can translate the following code into this English sentence: Take our dataframe “df”, and then select the date and request_type columns, and then filter only the rows where the request_type is “Potholes”.

df %>% 
  select(date, request_type) %>% 
  filter(request_type == "Potholes") #use the string "Potholes" to filter the dataframe

# A tibble: 31,735 × 2
   date       request_type
   <date>     <chr>       
 1 2016-03-03 Potholes    
 2 2016-03-08 Potholes    
 3 2016-02-22 Potholes    
 4 2016-02-22 Potholes    
 5 2016-03-04 Potholes    
 6 2016-03-11 Potholes    
 7 2016-03-08 Potholes    
 8 2016-03-08 Potholes    
 9 2016-03-08 Potholes    
10 2016-03-08 Potholes    
# ℹ 31,725 more rows

mutate

mutate() adds new columns, or modifies existing columns

df %>% 
  select(date, request_type) %>% 
  filter(request_type == "Potholes") %>% 
  mutate(weekday = wday(date, label = TRUE)) #add the wday column for day of the week

# A tibble: 31,735 × 3
   date       request_type weekday
   <date>     <chr>        <ord>  
 1 2016-03-03 Potholes     Thu    
 2 2016-03-08 Potholes     Tue    
 3 2016-02-22 Potholes     Mon    
 4 2016-02-22 Potholes     Mon    
 5 2016-03-04 Potholes     Fri    
 6 2016-03-11 Potholes     Fri    
 7 2016-03-08 Potholes     Tue    
 8 2016-03-08 Potholes     Tue    
 9 2016-03-08 Potholes     Tue    
10 2016-03-08 Potholes     Tue    
# ℹ 31,725 more rows
…
Instead of plotting the raw sum, we can calculate and plot the mean number of requests per month

(df %>% 
  filter(date >= "2016-01-01", #only select the rows where the date is after 2016-01-01 and before 2018-01-1
         date <= "2018-01-01",
         request_type == "Potholes") %>% 
  count(request_type, year, month) -> df_filtered)

# A tibble: 24 × 4
   request_type  year month     n
   <chr>        <dbl> <ord> <int>
 1 Potholes      2016 Jan     222
 2 Potholes      2016 Feb     594
 3 Potholes      2016 Mar     973
 4 Potholes      2016 Apr     759
 5 Potholes      2016 May     822
 6 Potholes      2016 Jun     784
 7 Potholes      2016 Jul     604
 8 Potholes      2016 Aug     556
 9 Potholes      2016 Sep     364
10 Potholes      2016 Oct     318
# ℹ 14 more rows
…
Make a line graph of the number of pothole requests in the dataset by date

df %>% 
  filter(request_type == "Potholes") %>% 
  count(date) #group_by and summarize the number of rows per date

# A tibble: 983 × 2
   date           n
   <date>     <int>
 1 2015-04-20   119
 2 2015-04-21   101
 3 2015-04-22   109
 4 2015-04-23   102
 5 2015-04-24    84
 6 2015-04-27    85
 7 2015-04-28   101
 8 2015-04-29   107
 9 2015-04-30    83
10 2015-05-01    66
# ℹ 973 more rows
…
Note that ggplot2 automatically formats the axis labels for dates

Graph the data by number of requests per day of the year

(df %>% 
  select(request_type, date) %>% 
  filter(request_type == "Potholes") %>% 
  mutate(year = year(date), #create a year column
         yday = yday(date)) %>% #create a day of the year column
  count(year, yday) -> df_day_of_year)  

# A tibble: 983 × 3
    year  yday     n
   <dbl> <dbl> <int>
 1  2015   110   119
 2  2015   111   101
 3  2015   112   109
 4  2015   113   102
 5  2015   114    84
 6  2015   117    85
 7  2015   118   101
 8  2015   119   107
 9  2015   120    83
10  2015   121    66
# ℹ 973 more rows
…
Graph the cumulative sum of pothole requests per year

(df %>% 
  select(request_type, date) %>% 
  filter(request_type == "Potholes") %>% 
  mutate(year = year(date),
         yday = yday(date)) %>% 
  arrange(date) %>% #always arrange your data for cumulative sums
  group_by(year, yday) %>%
  summarize(n = n()) %>% 
  ungroup() %>% #ungroup () resets whatever grouping you had before
  group_by(year) %>% 
  mutate(cumsum = cumsum(n)) -> df_cumulative_sum) #calculate the cumulative sum per year

# A tibble: 983 × 4
# Groups:   year [4]
    year  yday     n cumsum
   <dbl> <dbl> <int>  <int>
 1  2015   110   119    119
 2  2015   111   101    220
 3  2015   112   109    329
 4  2015   113   102    431
 5  2015   114    84    515
 6  2015   117    85    600
 7  2015   118   101    701
 8  2015   119   107    808
 9  2015   120    83    891
10  2015   121    66    957
# ℹ 973 more rows
…
Mapping

Load the ggmap package, which works with ggplot2

library(ggmap)

Select the request_type, x, and y columns. x and y are longitude and latitude

(df %>% 
  select(request_type, x, y) %>% 
  filter(!is.na(x), !is.na(y),
         request_type == "Potholes") -> df_map) #remove missing x and y values

# A tibble: 31,735 × 3
   request_type     x     y
   <chr>        <dbl> <dbl>
 1 Potholes     -79.9  40.5
 2 Potholes     -79.9  40.5
 3 Potholes     -79.9  40.5
 4 Potholes     -79.9  40.5
 5 Potholes     -79.9  40.5
 6 Potholes     -80.0  40.4
 7 Potholes     -79.9  40.5
 8 Potholes     -79.9  40.5
 9 Potholes     -79.9  40.5
10 Potholes     -79.9  40.5
# ℹ 31,725 more rows
…
