ctompkins_quarto_blog - Effect of COVID-19 on Pittsburgh parking transactions
…
There are 60 distinct parking zones in the dataset.

data %>% 
  distinct(zone) %>% 
  arrange(zone)

# A tibble: 62 × 1
   zone                       
   <chr>                      
 1 209 - Mon Wharf            
 2 213 - Second Avenue Plaza  
 3 301 - Sheridan Harvard Lot 
 4 302 - Sheridan Kirkwood Lot
 5 304 - Tamello Beatty Lot   
 6 307 - Eva Beatty Lot       
 7 308 - Harvard Beatty Lot   
 8 311 - Ansley Beatty Lot    
 9 314 - Penn Circle NW Lot   
10 321 - Beacon Bartlett Lot  
# ℹ 52 more rows
…
Neighborhood-level analysis

Next I perform the same analysis at the neighborhood level to see if any areas in the city were particularly affected. I manually aggregated the parking zones up to the neighborhood level. This code reads in that data.

geocoded_parking_locations <- read_csv("post_data/geocoded_parking_locations.csv")

geocoded_parking_locations %>%
  arrange(zone_region, zone)

# A tibble: 62 × 3
   zone                                 n zone_region
   <chr>                            <dbl> <chr>      
 1 354 - Walter/Warrington Lot      11735 Allentown  
 2 355 - Asteroid Warrington Lot    48240 Allentown  
 3 417 - Allentown                  35577 Allentown  
 4 363 - Beechview Lot              13890 Beechview  
 5 418 - Beechview                  68416 Beechview  
 6 334 - Taylor Street Lot          95186 Bloomfield 
 7 335 - Friendship Cedarville Lot 188572 Bloomfield 
 8 406 - Bloomfield (On-street)    220290 Bloomfield 
 9 361 - Brookline Lot               6473 Brookline  
10 419 - Brookline                 173071 Brookline  
# ℹ 52 more rows
…
