Working with Paycheck Protection Program data in R – Conor Tompkins
…
# A tibble: 1 × 3
  flag_match     n pct_mismatch
  <lgl>      <int>        <dbl>
1 FALSE        423       0.0001

I filter out the rows where the state doesn’t match the congressional district.

ppp_combined |> 
  filter(project_state != state_2) |> 
  distinct(project_state, state_2)

# A tibble: 236 × 2
   project_state state_2
   <chr>         <chr>  
 1 AL            WA     
 2 AL            FL     
 3 AZ            TX     
 4 CA            ME     
 5 CA            FL     
 6 CA            AP     
 7 CT            NJ     
 8 FL            TX     
 9 FL            WV     
10 FL            CA     
# ℹ 226 more rows
…
