ctompkins_quarto_blog - eBirding in Allegheny County
…
This calculates the 99th percentile of bird count per observation, and highlights the birds that are seen in large flocks.

df %>% 
  group_by(common_name) %>% 
  summarize(observation_count_99 = quantile(observation_count, probs = c(.99), na.rm = TRUE)) %>% 
  arrange(desc(observation_count_99))

# A tibble: 306 × 2
   common_name       observation_count_99
   <chr>                            <dbl>
 1 Ring-billed Gull                 3400 
 2 crow sp.                         2000 
 3 gull sp.                          500 
 4 Herring Gull                      248.
 5 Tundra Swan                       230.
 6 European Starling                 176.
 7 Horned Lark                       175 
 8 Bufflehead                        170.
 9 Canada Goose                      148 
10 Larus sp.                         143.
# ℹ 296 more rows
…
Species counts

This does a basic count of the major species, not accounting for simultaneous observation:

df_counts <- df %>% 
  group_by(common_name) %>% 
  summarize(species_count = sum(observation_count, na.rm = TRUE)) %>% 
  arrange(desc(species_count))

df_counts

# A tibble: 306 × 2
   common_name       species_count
   <chr>                     <dbl>
 1 Ring-billed Gull         253373
 2 American Crow            189804
 3 European Starling        180456
 4 American Robin           180148
 5 Canada Goose             159040
 6 Mallard                  103066
 7 Northern Cardinal         84604
 8 Mourning Dove             70975
 9 Blue Jay                  64894
10 Song Sparrow              63571
# ℹ 296 more rows
…
This calculates the difference in correlation for each bird:

df_corr_diff <- df_slopegraph %>% 
  pivot_wider(names_from = item1, values_from = correlation, names_prefix = "corr_") %>% 
  clean_names() %>% 
  mutate(corr_diff = abs(corr_blue_jay - corr_northern_cardinal)) %>% 
  select(item2, corr_diff)

df_corr_diff

# A tibble: 31 × 2
   item2                   corr_diff
   <chr>                       <dbl>
 1 Northern Cardinal        NA      
 2 Red-bellied Woodpecker    0.0347 
 3 Tufted Titmouse           0.0142 
 4 Carolina Wren            NA      
 5 Downy Woodpecker         NA      
 6 White-breasted Nuthatch   0.00495
 7 Song Sparrow              0.118  
 8 Northern Flicker          0.0199 
 9 Mourning Dove            NA      
10 Eastern Towhee           NA      
# ℹ 21 more rows
…
