ctompkins_quarto_blog - Effect of Geographic Resolution on ebirdst Abundance
…
species_metrics <- species_table %>% 
  mutate(data = pmap(list(location, species, metric, resolution), ~get_species_metric(..1, ..2, ..2, ..3, ..4))) %>% 
  mutate(resolution = fct_relevel(resolution, c("hr", "mr", "lr"))) %>% 
  arrange(species, metric, resolution) |> 
  unnest(data) %>% 
  unnest(data) 

species_metrics

# A tibble: 1,243,320 × 13
   location species metric resolution family_common_name common_name metric_desc
   <chr>    <chr>   <chr>  <chr>      <chr>              <chr>       <chr>      
 1 Pennsyl… Northe… abund… hr         Northern Cardinal  Northern C… abundance  
 2 Pennsyl… Northe… abund… hr         Northern Cardinal  Northern C… abundance  
 3 Pennsyl… Northe… abund… hr         Northern Cardinal  Northern C… abundance  
 4 Pennsyl… Northe… abund… hr         Northern Cardinal  Northern C… abundance  
 5 Pennsyl… Northe… abund… hr         Northern Cardinal  Northern C… abundance  
 6 Pennsyl… Northe… abund… hr         Northern Cardinal  Northern C… abundance  
 7 Pennsyl… Northe… abund… hr         Northern Cardinal  Northern C… abundance  
 8 Pennsyl… Northe… abund… hr         Northern Cardinal  Northern C… abundance  
 9 Pennsyl… Northe… abund… hr         Northern Cardinal  Northern C… abundance  
10 Pennsyl… Northe… abund… hr         Northern Cardinal  Northern C… abundance  
# ℹ 1,243,310 more rows
# ℹ 6 more variables: date <date>, value <dbl>, month <chr>, region <chr>,
#   x <dbl>, y <dbl>
…
