Time series clustering COVID-19 case data – ctompkins_quarto_blog
…
get_cluster_metrics <- function(object, cluster_number){
  
  object %>%
    pluck(cluster_number) %>%
    slot("clusinfo") %>%
    as_tibble()
  
}

cluster_metrics <- map(2:kclust, ~get_cluster_metrics(cluster_dtw_h, .x)) |> 
  list_rbind(names_to = "kclust")

cluster_metrics

# A tibble: 209 × 3
   kclust  size av_dist
    <int> <int>   <dbl>
 1      1    29    5.91
 2      1    23    6.83
 3      2    29    5.91
 4      2    17    5.44
 5      2     6    3.99
 6      3    16    4.55
 7      3    17    5.44
 8      3    13    3.70
 9      3     6    3.99
10      4    16    4.55
# ℹ 199 more rows
…
