Clustering Bird Species with Seasonality – Conor Tompkins
…
Subjectively, I think the optimal number of clusters is 4. It is noiser, but could show more interesting granularity in seasonality.

This clusters the data using 4 clusters:

df_kmeans <- df_seasonality_wide %>% 
  select(-common_name) %>% 
  kmeans(centers = 4)

df_clustered <- augment(df_kmeans, df_seasonality_wide) %>% 
  select(common_name, .cluster)

df_clustered

# A tibble: 306 × 2
   common_name                                   .cluster
   <chr>                                         <fct>   
 1 Acadian Flycatcher                            4       
 2 Accipiter sp.                                 3       
 3 Alder Flycatcher                              3       
 4 Alder/Willow Flycatcher (Traill's Flycatcher) 3       
 5 American Avocet                               3       
 6 American Bittern                              3       
 7 American Black Duck                           2       
 8 American Coot                                 2       
 9 American Crow                                 1       
10 American Golden-Plover                        3       
# ℹ 296 more rows
…
