Map Census Data With R – Conor Tompkins
…
sf can also do spatial calculations such as st_contains, st_intersects, and st_boundary.

{ggmap}

Uses Google Maps API to get basemaps. The API now requires a credit card, but it has a fairly generous “free” tier.

Using {tidycensus}

census_api_key("your_key_here")

This loads the variables from the Decennial Census in 2010:

variables_dec <- load_variables(year = 2010, dataset = "sf1", cache = TRUE)

# A tibble: 8,959 × 3
   name    label                                concept         
   <chr>   <chr>                                <chr>           
 1 H001001 Total                                HOUSING UNITS   
 2 H002001 Total                                URBAN AND RURAL 
 3 H002002 Total!!Urban                         URBAN AND RURAL 
 4 H002003 Total!!Urban!!Inside urbanized areas URBAN AND RURAL 
 5 H002004 Total!!Urban!!Inside urban clusters  URBAN AND RURAL 
 6 H002005 Total!!Rural                         URBAN AND RURAL 
 7 H002006 Total!!Not defined for this file     URBAN AND RURAL 
 8 H003001 Total                                OCCUPANCY STATUS
 9 H003002 Total!!Occupied                      OCCUPANCY STATUS
10 H003003 Total!!Vacant                        OCCUPANCY STATUS
# ℹ 8,949 more rows

This loads the ACS variables for 2017:

variables_acs <- load_variables(year = 2017, dataset = "acs5", cache = TRUE)

# A tibble: 25,071 × 4
   name        label                                  concept          geography
   <chr>       <chr>                                  <chr>            <chr>    
 1 B00001_001  Estimate!!Total                        UNWEIGHTED SAMP… block gr…
 2 B00002_001  Estimate!!Total                        UNWEIGHTED SAMP… block gr…
 3 B01001A_001 Estimate!!Total                        SEX BY AGE (WHI… tract    
 4 B01001A_002 Estimate!!Total!!Male                  SEX BY AGE (WHI… tract    
 5 B01001A_003 Estimate!!Total!!Male!!Under 5 years   SEX BY AGE (WHI… tract    
 6 B01001A_004 Estimate!!Total!!Male!!5 to 9 years    SEX BY AGE (WHI… tract    
 7 B01001A_005 Estimate!!Total!!Male!!10 to 14 years  SEX BY AGE (WHI… tract    
 8 B01001A_006 Estimate!!Total!!Male!!15 to 17 years  SEX BY AGE (WHI… tract    
 9 B01001A_007 Estimate!!Total!!Male!!18 and 19 years SEX BY AGE (WHI… tract    
10 B01001A_008 Estimate!!Total!!Male!!20 to 24 years  SEX BY AGE (WHI… tract    
# ℹ 25,061 more rows
…
states <- get_decennial(geography = "state",
                        variables = c(total_pop = "P001001"),
                        geometry = TRUE,
                        output = "wide",
                        year = 2010)

The states tibble contains the census data and the polygons for the geometries.

Simple feature collection with 52 features and 3 fields
Geometry type: MULTIPOLYGON
Dimension:     XY
Bounding box:  xmin: -179 ymin: 17.9 xmax: 180 ymax: 71.4
Geodetic CRS:  NAD83
# A tibble: 52 × 4
   GEOID NAME           total_pop                                       geometry
   <chr> <chr>              <dbl>                             <MULTIPOLYGON [°]>
 1 23    Maine            1328361 (((-67.6 44.5, -67.6 44.5, -67.6 44.5, -67.6 …
 2 25    Massachusetts    6547629 (((-70.8 41.6, -70.8 41.6, -70.8 41.6, -70.8 …
 3 26    Michigan         9883640 (((-88.7 48.1, -88.7 48.1, -88.7 48.1, -88.7 …
 4 30    Montana           989415 (((-104 45, -104 45, -104 45, -104 45, -105 4…
 5 32    Nevada           2700551 (((-114 37, -114 37, -114 36.8, -114 36.7, -1…
 6 34    New Jersey       8791894 (((-75.5 39.7, -75.5 39.7, -75.5 39.7, -75.5 …
 7 36    New York        19378102 (((-71.9 41.3, -71.9 41.3, -71.9 41.3, -71.9 …
 8 37    North Carolina   9535483 (((-82.6 36, -82.6 36, -82.6 36, -82.6 36, -8…
 9 39    Ohio            11536504 (((-82.8 41.7, -82.8 41.7, -82.8 41.7, -82.8 …
10 42    Pennsylvania    12702379 (((-75.4 39.8, -75.4 39.8, -75.5 39.8, -75.5 …
# ℹ 42 more rows
…
Simple feature collection with 32 features and 1 field
Geometry type: GEOMETRY
Dimension:     XY
Bounding box:  xmin: 1320000 ymin: 382000 xmax: 1380000 ymax: 433000
Projected CRS: NAD83 / Pennsylvania South (ftUS)
# A tibble: 32 × 2
    ward                                                                geometry
   <int>                                              <POLYGON [US_survey_foot]>
 1     1 ((1344377 410658, 1344401 410655, 1344473 410650, 1344497 410648, 1344…
 2     2 ((1349657 415566, 1349615 415539, 1349572 415508, 1349487 415433, 1349…
 3     3 ((1348490 410322, 1348432 410326, 1348333 410334, 1348260 410339, 1348…
 4     4 ((1357003 413341, 1357009 413322, 1357024 413281, 1357058 413173, 1357…
 5     5 ((1354794 418150, 1354861 418062, 1354918 417978, 1354931 417956, 1355…
 6     6 ((1354713 418633, 1354629 418544, 1354609 418522, 1354575 418487, 1354…
 7     7 ((1364905 417408, 1364974 417343, 1365180 417147, 1365249 417082, 1365…
 8     8 ((1357423 420022, 1357491 420008, 1357693 419965, 1357760 419952, 1357…
 9     9 ((1357423 420022, 1357369 420033, 1357314 420045, 1357208 420069, 1357…
10    10 ((1365337 428177, 1365357 428160, 1365370 428141, 1365383 428126, 1365…
# ℹ 22 more rows
…
df_311_count <- df_311 %>% 
  count(ward, sort = TRUE)

Use left_join to join the count data with the coordinates:

ward_311 <- wards %>% 
  left_join(df_311_count) %>%
  mutate(ward_label = ward_labels$ward)

Simple feature collection with 32 features and 3 fields
Geometry type: GEOMETRY
Dimension:     XY
Bounding box:  xmin: 1320000 ymin: 382000 xmax: 1380000 ymax: 433000
Projected CRS: NAD83 / Pennsylvania South (ftUS)
# A tibble: 32 × 4
    ward                                               geometry     n ward_label
 * <dbl>                             <POLYGON [US_survey_foot]> <int>      <int>
 1     1 ((1344377 410658, 1344401 410655, 1344473 410650, 134…  3821          1
 2     2 ((1349657 415566, 1349615 415539, 1349572 415508, 134…  7188          2
 3     3 ((1348490 410322, 1348432 410326, 1348333 410334, 134…  2327          3
 4     4 ((1357003 413341, 1357009 413322, 1357024 413281, 135… 12187          4
 5     5 ((1354794 418150, 1354861 418062, 1354918 417978, 135…  8514          5
 6     6 ((1354713 418633, 1354629 418544, 1354609 418522, 135…  6672          6
 7     7 ((1364905 417408, 1364974 417343, 1365180 417147, 136…  6896          7
 8     8 ((1357423 420022, 1357491 420008, 1357693 419965, 135…  9128          8
 9     9 ((1357423 420022, 1357369 420033, 1357314 420045, 135…  8321          9
10    10 ((1365337 428177, 1365357 428160, 1365370 428141, 136… 14032         10
# ℹ 22 more rows
…
