How Many Pittsburghers Cross the River to Get to Work – Conor Tompkins
…
library(tidyverse)
library(vroom)
library(sf)
library(tigris)
library(tidycensus)
library(tidygraph)
library(ggraph)

The first step is to read in the geographies crosswalk:

geo_crosswalk <- vroom("post_data/pa_xwalk.csv.gz", col_types = cols(.default = "c"))

geo_crosswalk

# A tibble: 421,545 × 43
   tabblk2010    st    stusps stname cty   ctyname trct  trctname bgrp  bgrpname
   <chr>         <chr> <chr>  <chr>  <chr> <chr>   <chr> <chr>    <chr> <chr>   
 1 420912030002… 42    PA     Penns… 42091 Montgo… 4209… 2030 (M… 4209… 2 (Trac…
 2 420912070013… 42    PA     Penns… 42091 Montgo… 4209… 2070.01… 4209… 3 (Trac…
 3 420912070013… 42    PA     Penns… 42091 Montgo… 4209… 2070.01… 4209… 3 (Trac…
 4 420710144022… 42    PA     Penns… 42071 Lancas… 4207… 144.02 … 4207… 2 (Trac…
 5 420710144022… 42    PA     Penns… 42071 Lancas… 4207… 144.02 … 4207… 2 (Trac…
 6 420710134002… 42    PA     Penns… 42071 Lancas… 4207… 134 (La… 4207… 2 (Trac…
 7 420710144022… 42    PA     Penns… 42071 Lancas… 4207… 144.02 … 4207… 2 (Trac…
 8 420710144022… 42    PA     Penns… 42071 Lancas… 4207… 144.02 … 4207… 2 (Trac…
 9 420710144022… 42    PA     Penns… 42071 Lancas… 4207… 144.02 … 4207… 2 (Trac…
10 420710144022… 42    PA     Penns… 42071 Lancas… 4207… 144.02 … 4207… 2 (Trac…
# ℹ 421,535 more rows
# ℹ 33 more variables: cbsa <chr>, cbsaname <chr>, zcta <chr>, zctaname <chr>,
#   stplc <chr>, stplcname <chr>, ctycsub <chr>, ctycsubname <chr>,
#   stcd116 <chr>, stcd116name <chr>, stsldl <chr>, stsldlname <chr>,
#   stsldu <chr>, stslduname <chr>, stschool <chr>, stschoolname <chr>,
#   stsecon <chr>, stseconname <chr>, trib <chr>, tribname <chr>, tsub <chr>,
#   tsubname <chr>, stanrc <chr>, stanrcname <chr>, necta <chr>, …
…
allegheny_tracts

Simple feature collection with 402 features and 3 fields
Geometry type: MULTIPOLYGON
Dimension:     XY
Bounding box:  xmin: -80.36087 ymin: 40.19435 xmax: -79.68885 ymax: 40.67494
Geodetic CRS:  NAD83
# A tibble: 402 × 4
   GEOID       NAME                          total_pop                  geometry
   <chr>       <chr>                             <dbl>        <MULTIPOLYGON [°]>
 1 42003412002 Census Tract 4120.02, Allegh…      4865 (((-80.07936 40.58043, -…
 2 42003413100 Census Tract 4131, Allegheny…      6609 (((-80.06788 40.60846, -…
 3 42003413300 Census Tract 4133, Allegheny…      4742 (((-80.03822 40.55349, -…
 4 42003416000 Census Tract 4160, Allegheny…      1636 (((-79.77054 40.56028, -…
 5 42003417200 Census Tract 4172, Allegheny…      1260 (((-79.78122 40.54113, -…
 6 42003423000 Census Tract 4230, Allegheny…      2801 (((-79.90692 40.4871, -7…
 7 42003426800 Census Tract 4268, Allegheny…      5369 (((-79.94408 40.53137, -…
 8 42003428100 Census Tract 4281, Allegheny…      1242 (((-79.97941 40.47738, -…
 9 42003429500 Census Tract 4295, Allegheny…      4212 (((-80.01937 40.55063, -…
10 42003431100 Census Tract 4311, Allegheny…      3380 (((-80.05242 40.49402, -…
# ℹ 392 more rows
…
Next I read in the main LODES data. This is a big file, so it takes a moment.

df <- vroom("post_data/pa_od_main_JT00_2017.csv.gz", col_types = cols(.default = "c")) %>% 
  mutate(S000 = as.numeric(S000)) %>% 
  select(h_geocode, w_geocode, S000)

df

# A tibble: 5,034,208 × 3
   h_geocode       w_geocode        S000
   <chr>           <chr>           <dbl>
 1 420010301022005 420010301011003     1
 2 420010303002001 420010301011003     1
 3 420010301023038 420010301011012     1
 4 420010314011078 420010301011012     1
 5 420010301011027 420010301011016     1
 6 420010301011033 420010301011016     1
 7 420010301011038 420010301011016     1
 8 420010301011116 420010301011016     1
 9 420010301011123 420010301011016     1
10 420010302001018 420010301011016     1
# ℹ 5,034,198 more rows
…
Here I set a manual layout for the ggraph object. I use the centroids of the census tracts as the nodes in the network graph.

node_pos <- allegheny_tracts_centroids

manual_layout <- create_layout(graph = g,
                               layout = node_pos)

manual_layout %>% 
  as_tibble()

# A tibble: 402 × 7
   GEOID           x     y name        .ggraph.orig_index .ggraph.index circular
   <chr>       <dbl> <dbl> <chr>                    <int>         <int> <lgl>   
 1 42003010300 -80.0  40.4 42003020100                  1             1 FALSE   
 2 42003020100 -80.0  40.4 42003409000                  2             2 FALSE   
 3 42003020300 -80.0  40.5 42003191800                  3             3 FALSE   
 4 42003030500 -80.0  40.4 42003412001                  4             4 FALSE   
 5 42003040200 -80.0  40.4 42003411000                  5             5 FALSE   
 6 42003040400 -79.9  40.4 42003456003                  6             6 FALSE   
 7 42003040500 -80.0  40.4 42003191700                  7             7 FALSE   
 8 42003040600 -80.0  40.4 42003413100                  8             8 FALSE   
 9 42003040900 -80.0  40.4 42003473100                  9             9 FALSE   
10 42003050100 -80.0  40.4 42003426300                 10            10 FALSE   
# ℹ 392 more rows
…
df_nodes <- g %>% 
  activate(nodes) %>% 
  as_tibble() %>% 
  mutate(id = row_number())

The df_lines is pivoted long so there is a “to” and “from” row for each commuter line:

df_lines <- df_edges %>% 
  mutate(line_id = row_number()) %>% 
  pivot_longer(c(from, to), names_to = "point_type", values_to = "edge_id")

df_lines

# A tibble: 5,938 × 4
   commuters line_id point_type edge_id
       <dbl>   <int> <chr>        <int>
 1       723       1 from             1
 2       723       1 to               1
 3       620       2 from             2
 4       620       2 to               1
 5       488       3 from             2
 6       488       3 to               2
 7       487       4 from             3
 8       487       4 to               1
 9       442       5 from             4
10       442       5 to               1
# ℹ 5,928 more rows
…
Since some commuter “lines” are really just points that start and end at the same centroid, I separate the commuter “lines” from the “points” for purposes of manipulating the geometries.

df_line_types <- df_lines %>% 
  pivot_wider(names_from = point_type, values_from = edge_id) %>% 
  mutate(line_type = case_when(from == to ~ "point",
                               from != to ~ "linestring")) %>% 
  pivot_longer(cols = c(from, to), names_to = "edge_type", values_to = "edge_id")

df_line_types

# A tibble: 5,938 × 5
   commuters line_id line_type  edge_type edge_id
       <dbl>   <int> <chr>      <chr>       <int>
 1       723       1 point      from            1
 2       723       1 point      to              1
 3       620       2 linestring from            2
 4       620       2 linestring to              1
 5       488       3 point      from            2
 6       488       3 point      to              2
 7       487       4 linestring from            3
 8       487       4 linestring to              1
 9       442       5 linestring from            4
10       442       5 linestring to              1
# ℹ 5,928 more rows
…
It is always reassuring when your analysis doesn’t stray to far from conventional wisdom. Very few Pittsburghers in the dataset cross two rivers to get to work, and none cross three.

Mapping commuter patterns

The next step is to put this data on a map, since it is obviously spatial. The goal is to calculate the percentage of each census tract’s “from” commuters that crossed zero, one, two, and 3 rivers.

This prepares the edge data to be used to make a chloropleth map:

df_lines_chloro <- df_edges %>% 
  mutate(line_id = row_number()) %>% 
  pivot_longer(c(from, to), names_to = "point_type", values_to = "edge_id")

df_lines_chloro

# A tibble: 5,938 × 4
   commuters line_id point_type edge_id
       <dbl>   <int> <chr>        <int>
 1       723       1 from             1
 2       723       1 to               1
 3       620       2 from             2
 4       620       2 to               1
 5       488       3 from             2
 6       488       3 to               2
 7       487       4 from             3
 8       487       4 to               1
 9       442       5 from             4
10       442       5 to               1
# ℹ 5,928 more rows
…
# df_combined %>%
#     filter(is.na(from))
# 
# df_combined %>%
#    summarize(commuters = sum(commuters))
#184404 total commuters

df_combined <- df_combined %>% 
  arrange(from, desc(count_rivers_intersected), desc(commuters))

These are the final steps to create the chloropleth:

df_combined

# A tibble: 2,969 × 4
   line_id from        commuters count_rivers_intersected
     <int> <chr>           <dbl>                    <dbl>
 1     748 42003010300        63                        0
 2    2192 42003020100        31                        2
 3    1372 42003020100        42                        1
 4    2282 42003020100        30                        1
 5       1 42003020100       723                        0
 6     632 42003020100        70                        0
 7     730 42003020100        64                        0
 8    1102 42003020100        49                        0
 9    1761 42003020100        36                        0
10     350 42003020300       112                        0
# ℹ 2,959 more rows

This counts the number of commuters per “from” tract and “count of rivers intersected”. Note that there are multiple rows per “from” tract.

df_chloro_map <- df_combined %>%
  ungroup() %>% 
  group_by(from, count_rivers_intersected) %>% 
  summarize(total_commuters = sum(commuters)) %>% 
  ungroup()

df_chloro_map

# A tibble: 723 × 3
   from        count_rivers_intersected total_commuters
   <chr>                          <dbl>           <dbl>
 1 42003010300                        0              63
 2 42003020100                        0             942
 3 42003020100                        1              72
 4 42003020100                        2              31
 5 42003020300                        0             258
 6 42003030500                        0             231
 7 42003040200                        0             143
 8 42003040400                        0             108
 9 42003040500                        0              87
10 42003040600                        0              59
# ℹ 713 more rows
…
The next step is to calculate the percent of a “from” tract’s commuters that crossed a given number of rivers:

df_chloro_map <- df_chloro_map %>% 
  group_by(from) %>% 
  mutate(pct_of_commuters = total_commuters / sum(total_commuters)) %>% 
  ungroup()

df_chloro_map

# A tibble: 723 × 4
   from        count_rivers_intersected total_commuters pct_of_commuters
   <chr>                          <dbl>           <dbl>            <dbl>
 1 42003010300                        0              63           1     
 2 42003020100                        0             942           0.901 
 3 42003020100                        1              72           0.0689
 4 42003020100                        2              31           0.0297
 5 42003020300                        0             258           1     
 6 42003030500                        0             231           1     
 7 42003040200                        0             143           1     
 8 42003040400                        0             108           1     
 9 42003040500                        0              87           1     
10 42003040600                        0              59           1     
# ℹ 713 more rows
…
