Exploring Allegheny County With Census Data – Conor Tompkins
…
theme_set(theme_bw())

census_vars <- load_variables(2010, "sf1", cache = TRUE)

Collect data

tidycensus provides a wrapper for the U.S. Census API. You can request a wide variety of data, from economic measures to information about demography. The API also includes data about geographic regions.

This code creates a dataframe of some of the variables available through the census API.

vars <- load_variables(2016, "acs5", cache = TRUE)

vars

# A tibble: 22,816 × 4
   name        label                                  concept          geography
   <chr>       <chr>                                  <chr>            <chr>    
 1 B00001_001  Estimate!!Total                        UNWEIGHTED SAMP… block gr…
 2 B00002_001  Estimate!!Total                        UNWEIGHTED SAMP… block gr…
 3 B01001A_001 Estimate!!Total                        SEX BY AGE (WHI… tract    
 4 B01001A_002 Estimate!!Total!!Male                  SEX BY AGE (WHI… tract    
 5 B01001A_003 Estimate!!Total!!Male!!Under 5 years   SEX BY AGE (WHI… tract    
 6 B01001A_004 Estimate!!Total!!Male!!5 to 9 years    SEX BY AGE (WHI… tract    
 7 B01001A_005 Estimate!!Total!!Male!!10 to 14 years  SEX BY AGE (WHI… tract    
 8 B01001A_006 Estimate!!Total!!Male!!15 to 17 years  SEX BY AGE (WHI… tract    
 9 B01001A_007 Estimate!!Total!!Male!!18 and 19 years SEX BY AGE (WHI… tract    
10 B01001A_008 Estimate!!Total!!Male!!20 to 24 years  SEX BY AGE (WHI… tract    
# ℹ 22,806 more rows
…
