Visualizing Transit Connections Between Pittsburgh Census Tracts | Conor Tompkins
…
#pivot data longer
transit_stops <- transit_stops %>% 
  pivot_longer(cols = starts_with("route_"), names_to = "route_number", values_to = "route_id") %>% 
  st_as_sf()
  
transit_stops

## Simple feature collection with 145866 features and 4 fields
## geometry type:  POINT
## dimension:      XY
## bbox:           xmin: 3300000 ymin: 960000 xmax: 3300000 ymax: 1000000
## projected CRS:  NAD83(NSRS2007) / California Albers
## # A tibble: 145,866 x 5
##    stop_name               routes_cou             geometry route_number route_id
##    <chr>                        <dbl>          <POINT [m]> <chr>        <chr>   
##  1 26TH ST AT PENN AVE FS…          3     (3294762 976882) route_1      54      
##  2 26TH ST AT PENN AVE FS…          3     (3294762 976882) route_2      88      
##  3 26TH ST AT PENN AVE FS…          3     (3294762 976882) route_3      91      
##  4 26TH ST AT PENN AVE FS…          3     (3294762 976882) route_4      <NA>    
##  5 26TH ST AT PENN AVE FS…          3     (3294762 976882) route_5      <NA>    
##  6 26TH ST AT PENN AVE FS…          3     (3294762 976882) route_6      <NA>    
##  7 26TH ST AT PENN AVE FS…          3     (3294762 976882) route_7      <NA>    
##  8 26TH ST AT PENN AVE FS…          3     (3294762 976882) route_8      <NA>    
##  9 26TH ST AT PENN AVE FS…          3     (3294762 976882) route_9      <NA>    
## 10 26TH ST AT PENN AVE FS…          3     (3294762 976882) route_10     <NA>    
## # … with 145,856 more rows
…
df_route_filter <- df_stops_joined_distance %>% 
  st_drop_geometry() %>% 
  distinct(route_id, name) %>% 
  group_by(route_id) %>% 
  filter(n() >= 2) %>% 
  ungroup() %>% 
  distinct(route_id)

df_route_filter

## # A tibble: 22 x 1
##    route_id
##    <chr>   
##  1 28X     
##  2 67      
##  3 69      
##  4 71A     
##  5 71B     
##  6 71C     
##  7 71D     
##  8 82      
##  9 86      
## 10 P1      
## # … with 12 more rows
…
