Analyzing US labor force participation rates with {feasts} – Conor Tompkins
…
Trend and seasonality

Here I use STL (Multiple seasonal decomposition by Loess) to decompose each time series into trend, seasonality, and remainder. This models the strength of the trend and seasonality over time. The remainder is the noise in the data that cannot be explained by the trend or seasonality. I use components to extract the components of the decomposition to analyze them further. I also transform participation_rate to the log scale, which makes the STL decomposition multiplicative instead of additive. This makes it easier to compare the magnitude of seasonality (season_year) and remainder between series.

Code

stl_models <- fred_df |> 
  model(stl = STL(log(participation_rate) ~ trend() + season()))

stl_components <- stl_models |>
  components()

stl_components

# A dable: 1,850 x 8 [1M]
# Key:     series, .model [2]
# :        log(participation_rate) = trend + season_year + remainder
   series     .model     date log(participation_ra…¹ trend season_year remainder
   <chr>      <chr>     <mth>                  <dbl> <dbl>       <dbl>     <dbl>
 1 men >= ag… stl    1948 Jan                   4.48  4.48   -0.00709   0.00132 
 2 men >= ag… stl    1948 Feb                   4.48  4.48   -0.00601   0.00221 
 3 men >= ag… stl    1948 Mar                   4.48  4.48   -0.00343  -0.00409 
 4 men >= ag… stl    1948 Apr                   4.48  4.48   -0.00213  -0.00228 
 5 men >= ag… stl    1948 May                   4.48  4.48   -0.000316 -0.00431 
 6 men >= ag… stl    1948 Jun                   4.49  4.48    0.00431  -0.000127
 7 men >= ag… stl    1948 Jul                   4.49  4.48    0.00631   0.00215 
 8 men >= ag… stl    1948 Aug                   4.49  4.48    0.00693   0.00357 
 9 men >= ag… stl    1948 Sep                   4.49  4.48    0.00362   0.00221 
10 men >= ag… stl    1948 Oct                   4.49  4.48    0.000450  0.00294 
# ℹ 1,840 more rows
# ℹ abbreviated name: ¹​`log(participation_rate)`
# ℹ 1 more variable: season_adjust <dbl>
…
Changes in peaks/troughs over time

Here I apply STL decomposition to the tiled series to investigate the changes in seasonality over time.

Code

stl_components <- fred_tile |> 
  model(stl = STL(participation_rate ~ trend() + season())) |> 
  left_join(period_start, by = c("series", ".id")) |> 
  components()

stl_components

# A dable: 1,824 x 9 [1M]
# Key:     .id, series, .model [38]
# :        participation_rate = trend + season_year + remainder
     .id series   .model     date participation_rate trend season_year remainder
   <int> <chr>    <chr>     <mth>              <dbl> <dbl>       <dbl>     <dbl>
 1     1 men >= … stl    1948 Jan               87.9  88.5      -0.677    0.109 
 2     1 men >= … stl    1948 Feb               88.1  88.5      -0.579    0.192 
 3     1 men >= … stl    1948 Mar               87.8  88.5      -0.368   -0.338 
 4     1 men >= … stl    1948 Apr               88.1  88.5      -0.275   -0.149 
 5     1 men >= … stl    1948 May               88.1  88.5      -0.146   -0.293 
 6     1 men >= … stl    1948 Jun               88.9  88.6       0.326    0.0210
 7     1 men >= … stl    1948 Jul               89.3  88.6       0.551    0.182 
 8     1 men >= … stl    1948 Aug               89.5  88.6       0.694    0.227 
 9     1 men >= … stl    1948 Sep               89.1  88.6       0.417    0.0908
10     1 men >= … stl    1948 Oct               88.9  88.6       0.150    0.145 
# ℹ 1,814 more rows
# ℹ 1 more variable: season_adjust <dbl>
…
