Visualizing Transit Connections Between Pittsburgh Census Tracts – Conor Tompkins
…
#pivot data longer
transit_stops <- transit_stops %>% 
  pivot_longer(cols = starts_with("route_"), names_to = "route_number", values_to = "route_id") %>% 
  st_as_sf()
  
transit_stops

Simple feature collection with 145866 features and 4 fields
Geometry type: POINT
Dimension:     XY
Bounding box:  xmin: 3300000 ymin: 960000 xmax: 3300000 ymax: 1000000
Projected CRS: NAD83(NSRS2007) / California Albers
# A tibble: 145,866 × 5
   stop_name          routes_cou         geometry route_number route_id
   <chr>                   <dbl>      <POINT [m]> <chr>        <chr>   
 1 26TH ST AT PENN A…          3 (3294762 976882) route_1      54      
 2 26TH ST AT PENN A…          3 (3294762 976882) route_2      88      
 3 26TH ST AT PENN A…          3 (3294762 976882) route_3      91      
 4 26TH ST AT PENN A…          3 (3294762 976882) route_4      <NA>    
 5 26TH ST AT PENN A…          3 (3294762 976882) route_5      <NA>    
 6 26TH ST AT PENN A…          3 (3294762 976882) route_6      <NA>    
 7 26TH ST AT PENN A…          3 (3294762 976882) route_7      <NA>    
 8 26TH ST AT PENN A…          3 (3294762 976882) route_8      <NA>    
 9 26TH ST AT PENN A…          3 (3294762 976882) route_9      <NA>    
10 26TH ST AT PENN A…          3 (3294762 976882) route_10     <NA>    
# ℹ 145,856 more rows
…
This code uses st_is_within_distance to find the transit stops that are within 700 meters of the center of the Downtown AND Shadyside census tracts.

df_stops_joined_distance <- transit_stops %>% 
  st_join(commute_centroids, st_is_within_distance, dist = 700, left = TRUE) %>% 
  arrange(route_id)

df_stops_joined_distance

Simple feature collection with 12087 features and 10 fields
Geometry type: POINT
Dimension:     XY
Bounding box:  xmin: 3300000 ymin: 960000 xmax: 3300000 ymax: 1000000
Projected CRS: NAD83(NSRS2007) / California Albers
# A tibble: 12,087 × 11
   stop_name          routes_cou         geometry route_number route_id
   <chr>                   <dbl>      <POINT [m]> <chr>        <chr>   
 1 WEST MIFFLIN GARA…          4 (3302630 969221) route_2      ""      
 2 LAYOVER PENN PARK…         12 (3294348 975649) route_2      ""      
 3 LAYOVER PENN PARK…         12 (3294348 975649) route_6      ""      
 4 LAYOVER PENN PARK…         12 (3294348 975649) route_8      ""      
 5 LAYOVER PENN PARK…         12 (3294348 975649) route_11     ""      
 6 4TH AVE AT 7TH ST           1 (3306225 995240) route_1      "1"     
 7 E 4TH AVE AT BOYD…          2 (3305254 999390) route_1      "1"     
 8 4TH AVE AT CENTRA…          1 (3306153 995343) route_1      "1"     
 9 E 4TH AVE AT LOCK…          2 (3305377 999550) route_1      "1"     
10 E 4TH AVE AT WOOD…          2 (3305323 999479) route_1      "1"     
# ℹ 12,077 more rows
# ℹ 6 more variables: service_type <chr>, full_route_name_id <chr>,
#   GEOID <chr>, NAME <chr>, total_pop <dbl>, name <chr>

df_stops_joined_distance <- df_stops_joined_distance %>% 
  filter(!is.na(name))

df_stops_joined_distance

Simple feature collection with 736 features and 10 fields
Geometry type: POINT
Dimension:     XY
Bounding box:  xmin: 3300000 ymin: 970000 xmax: 3300000 ymax: 980000
Projected CRS: NAD83(NSRS2007) / California Albers
# A tibble: 736 × 11
   stop_name          routes_cou         geometry route_number route_id
 * <chr>                   <dbl>      <POINT [m]> <chr>        <chr>   
 1 7TH ST AT FT DUQU…          9 (3293481 975066) route_1      1       
 2 7TH ST AT PENN AV…          4 (3293586 974931) route_1      1       
 3 LIBERTY AVE AT 7T…          8 (3293638 974904) route_1      1       
 4 LIBERTY AVE AT SM…         19 (3293846 975073) route_1      1       
 5 LIBERTY AVE AT WI…         18 (3293943 975161) route_1      1       
 6 LIBERTY AVE OPP 9…         20 (3293761 974994) route_1      1       
 7 LIBERTY AVE OPP S…          8 (3293856 975107) route_1      1       
 8 7TH ST AT FT DUQU…          9 (3293481 975066) route_2      11      
 9 7TH ST AT PENN AV…          4 (3293586 974931) route_2      11      
10 LIBERTY AVE AT 7T…          8 (3293638 974904) route_2      11      
# ℹ 726 more rows
# ℹ 6 more variables: service_type <chr>, full_route_name_id <chr>,
#   GEOID <chr>, NAME <chr>, total_pop <dbl>, name <chr>

df_route_filter <- df_stops_joined_distance %>% 
  st_drop_geometry() %>% 
  distinct(route_id, name) %>% 
  group_by(route_id) %>% 
  filter(n() >= 2) %>% 
  ungroup() %>% 
  distinct(route_id)

df_route_filter

# A tibble: 22 × 1
   route_id
   <chr>   
 1 28X     
 2 67      
 3 69      
 4 71A     
 5 71B     
 6 71C     
 7 71D     
 8 82      
 9 86      
10 P1      
# ℹ 12 more rows
…
